^C:\USERS\HP\DOCUMENTS\VISUAL STUDIO 2012\PROJECTS\CONSOLEAPPLICATION1\CONSOLEAPPLICATION1\X64\DEBUG\CONSOLEAPPLICATION1.OBJ|C:\USERS\HP\DOCUMENTS\VISUAL STUDIO 2012\PROJECTS\CONSOLEAPPLICATION1\CONSOLEAPPLICATION1\X64\DEBUG\STDAFX.OBJ
C:\USERS\HP\DOCUMENTS\VISUAL STUDIO 2012\PROJECTS\CONSOLEAPPLICATION1\X64\DEBUG\CONSOLEAPPLICATION1.ILK
C:\USERS\HP\DOCUMENTS\VISUAL STUDIO 2012\PROJECTS\CONSOLEAPPLICATION1\X64\DEBUG\CONSOLEAPPLICATION1.EXE
C:\USERS\HP\DOCUMENTS\VISUAL STUDIO 2012\PROJECTS\CONSOLEAPPLICATION1\X64\DEBUG\CONSOLEAPPLICATION1.PDB
