^C:\USERS\MANYA\DOCUMENTS\VISUAL STUDIO 2015\PROJECTS\CANNYSTILL1\CANNYSTILL.CPP
C:\USERS\MANYA\DOCUMENTS\VISUAL STUDIO 2015\PROJECTS\CANNYSTILL1\X64\DEBUG\VC140.PDB
C:\USERS\MANYA\DOCUMENTS\VISUAL STUDIO 2015\PROJECTS\CANNYSTILL1\X64\DEBUG\VC140.IDB
C:\USERS\MANYA\DOCUMENTS\VISUAL STUDIO 2015\PROJECTS\CANNYSTILL1\X64\DEBUG\CANNYSTILL.OBJ
^C:\USERS\MANYA\DOCUMENTS\VISUAL STUDIO 2015\PROJECTS\CANNYSTILL1\2.CPP
C:\USERS\MANYA\DOCUMENTS\VISUAL STUDIO 2015\PROJECTS\CANNYSTILL1\X64\DEBUG\VC140.PDB
C:\USERS\MANYA\DOCUMENTS\VISUAL STUDIO 2015\PROJECTS\CANNYSTILL1\X64\DEBUG\VC140.IDB
C:\USERS\MANYA\DOCUMENTS\VISUAL STUDIO 2015\PROJECTS\CANNYSTILL1\X64\DEBUG\2.OBJ
