^C:\USERS\HP\DOCUMENTS\VISUAL STUDIO 2012\PROJECTS\CONSOLEAPPLICATION1\CONSOLEAPPLICATION1\STDAFX.CPP
D:\VS\VC\BIN\1033\CLUI.DLL
C:\WINDOWS\GLOBALIZATION\SORTING\SORTDEFAULT.NLS
D:\VS\COMMON7\IDE\MSPDBSRV.EXE
C:\WINDOWS\SYSTEM32\TZRES.DLL
C:\USERS\HP\DOCUMENTS\VISUAL STUDIO 2012\PROJECTS\CONSOLEAPPLICATION1\CONSOLEAPPLICATION1\STDAFX.H
C:\USERS\HP\DOCUMENTS\VISUAL STUDIO 2012\PROJECTS\CONSOLEAPPLICATION1\CONSOLEAPPLICATION1\TARGETVER.H
C:\PROGRAM FILES (X86)\WINDOWS KITS\8.0\INCLUDE\SHARED\SDKDDKVER.H
D:\VS\VC\INCLUDE\STDIO.H
D:\VS\VC\INCLUDE\CRTDEFS.H
D:\VS\VC\INCLUDE\SAL.H
D:\VS\VC\INCLUDE\CONCURRENCYSAL.H
D:\VS\VC\INCLUDE\VADEFS.H
D:\VS\VC\INCLUDE\SWPRINTF.INL
D:\VS\VC\INCLUDE\TCHAR.H
D:\VS\VC\INCLUDE\WCHAR.H
D:\VS\VC\INCLUDE\WTIME.INL
^C:\USERS\HP\DOCUMENTS\VISUAL STUDIO 2012\PROJECTS\CONSOLEAPPLICATION1\CONSOLEAPPLICATION1\CONSOLEAPPLICATION1.CPP
D:\VS\VC\BIN\1033\CLUI.DLL
C:\WINDOWS\GLOBALIZATION\SORTING\SORTDEFAULT.NLS
C:\WINDOWS\SYSTEM32\TZRES.DLL
C:\USERS\HP\DOCUMENTS\VISUAL STUDIO 2012\PROJECTS\CONSOLEAPPLICATION1\CONSOLEAPPLICATION1\DEBUG\CONSOLEAPPLICATION1.PCH
D:\VS\VC\INCLUDE\IOSTREAM
D:\VS\VC\INCLUDE\ISTREAM
D:\VS\VC\INCLUDE\OSTREAM
D:\VS\VC\INCLUDE\IOS
D:\VS\VC\INCLUDE\XLOCNUM
D:\VS\VC\INCLUDE\CLIMITS
D:\VS\VC\INCLUDE\YVALS.H
D:\VS\VC\INCLUDE\XKEYCHECK.H
D:\VS\VC\INCLUDE\CRTDEFS.H
D:\VS\VC\INCLUDE\USE_ANSI.H
D:\VS\VC\INCLUDE\LIMITS.H
D:\VS\VC\INCLUDE\CMATH
D:\VS\VC\INCLUDE\MATH.H
D:\VS\VC\INCLUDE\XTGMATH.H
D:\VS\VC\INCLUDE\XTR1COMMON
D:\VS\VC\INCLUDE\CSTDIO
D:\VS\VC\INCLUDE\CSTDLIB
D:\VS\VC\INCLUDE\STDLIB.H
D:\VS\VC\INCLUDE\STREAMBUF
D:\VS\VC\INCLUDE\XIOSBASE
D:\VS\VC\INCLUDE\XLOCALE
D:\VS\VC\INCLUDE\CSTRING
D:\VS\VC\INCLUDE\STRING.H
D:\VS\VC\INCLUDE\STDEXCEPT
D:\VS\VC\INCLUDE\EXCEPTION
D:\VS\VC\INCLUDE\XSTDDEF
D:\VS\VC\INCLUDE\CSTDDEF
D:\VS\VC\INCLUDE\STDDEF.H
D:\VS\VC\INCLUDE\EH.H
D:\VS\VC\INCLUDE\MALLOC.H
D:\VS\VC\INCLUDE\XSTRING
D:\VS\VC\INCLUDE\XMEMORY0
D:\VS\VC\INCLUDE\LIMITS
D:\VS\VC\INCLUDE\YMATH.H
D:\VS\VC\INCLUDE\CFLOAT
D:\VS\VC\INCLUDE\FLOAT.H
D:\VS\VC\INCLUDE\CRTWRN.H
D:\VS\VC\INCLUDE\CWCHAR
D:\VS\VC\INCLUDE\NEW
D:\VS\VC\INCLUDE\XUTILITY
D:\VS\VC\INCLUDE\UTILITY
D:\VS\VC\INCLUDE\IOSFWD
D:\VS\VC\INCLUDE\CRTDBG.H
D:\VS\VC\INCLUDE\TYPE_TRAITS
D:\VS\VC\INCLUDE\XREFWRAP
D:\VS\VC\INCLUDE\XATOMIC0.H
D:\VS\VC\INCLUDE\INTRIN.H
D:\VS\VC\INCLUDE\SETJMP.H
D:\VS\VC\INCLUDE\IMMINTRIN.H
D:\VS\VC\INCLUDE\WMMINTRIN.H
D:\VS\VC\INCLUDE\NMMINTRIN.H
D:\VS\VC\INCLUDE\SMMINTRIN.H
D:\VS\VC\INCLUDE\TMMINTRIN.H
D:\VS\VC\INCLUDE\PMMINTRIN.H
D:\VS\VC\INCLUDE\EMMINTRIN.H
D:\VS\VC\INCLUDE\XMMINTRIN.H
D:\VS\VC\INCLUDE\MMINTRIN.H
D:\VS\VC\INCLUDE\AMMINTRIN.H
D:\VS\VC\INCLUDE\MM3DNOW.H
D:\VS\VC\INCLUDE\TYPEINFO
D:\VS\VC\INCLUDE\XLOCINFO
D:\VS\VC\INCLUDE\XLOCINFO.H
D:\VS\VC\INCLUDE\CTYPE.H
D:\VS\VC\INCLUDE\LOCALE.H
D:\VS\VC\INCLUDE\XDEBUG
D:\VS\VC\INCLUDE\XMEMORY
D:\VS\VC\INCLUDE\XFACET
D:\VS\VC\INCLUDE\SYSTEM_ERROR
D:\VS\VC\INCLUDE\CERRNO
D:\VS\VC\INCLUDE\ERRNO.H
D:\VS\VC\INCLUDE\SHARE.H
D:\VS\VC\INCLUDE\FSTREAM
D:\USERS\HP\DESKTOP\OPENCV\BUILD\INCLUDE\OPENCV2\CORE\CORE.HPP
D:\USERS\HP\DESKTOP\OPENCV\BUILD\INCLUDE\OPENCV2\CORE\TYPES_C.H
D:\VS\VC\INCLUDE\ASSERT.H
D:\USERS\HP\DESKTOP\OPENCV\BUILD\INCLUDE\OPENCV2\CORE\VERSION.HPP
D:\VS\VC\INCLUDE\ALGORITHM
D:\VS\VC\INCLUDE\COMPLEX
D:\VS\VC\INCLUDE\CCOMPLEX
D:\VS\VC\INCLUDE\SSTREAM
D:\VS\VC\INCLUDE\STRING
D:\VS\VC\INCLUDE\ITERATOR
D:\VS\VC\INCLUDE\XCOMPLEX
D:\VS\VC\INCLUDE\MAP
D:\VS\VC\INCLUDE\XTREE
D:\VS\VC\INCLUDE\VECTOR
D:\USERS\HP\DESKTOP\OPENCV\BUILD\INCLUDE\OPENCV2\CORE\OPERATIONS.HPP
D:\USERS\HP\DESKTOP\OPENCV\BUILD\INCLUDE\OPENCV2\CORE\MAT.HPP
D:\USERS\HP\DESKTOP\OPENCV\BUILD\INCLUDE\OPENCV2\HIGHGUI\HIGHGUI.HPP
D:\USERS\HP\DESKTOP\OPENCV\BUILD\INCLUDE\OPENCV2\HIGHGUI\HIGHGUI_C.H
D:\USERS\HP\DESKTOP\OPENCV\BUILD\INCLUDE\OPENCV2\CORE\CORE_C.H
D:\USERS\HP\DESKTOP\OPENCV\BUILD\INCLUDE\OPENCV2\CONTRIB\CONTRIB.HPP
D:\USERS\HP\DESKTOP\OPENCV\BUILD\INCLUDE\OPENCV2\IMGPROC\IMGPROC.HPP
D:\USERS\HP\DESKTOP\OPENCV\BUILD\INCLUDE\OPENCV2\IMGPROC\TYPES_C.H
D:\USERS\HP\DESKTOP\OPENCV\BUILD\INCLUDE\OPENCV2\FEATURES2D\FEATURES2D.HPP
D:\USERS\HP\DESKTOP\OPENCV\BUILD\INCLUDE\OPENCV2\FLANN\MINIFLANN.HPP
D:\USERS\HP\DESKTOP\OPENCV\BUILD\INCLUDE\OPENCV2\FLANN\DEFINES.H
D:\USERS\HP\DESKTOP\OPENCV\BUILD\INCLUDE\OPENCV2\FLANN\CONFIG.H
D:\USERS\HP\DESKTOP\OPENCV\BUILD\INCLUDE\OPENCV2\OBJDETECT\OBJDETECT.HPP
D:\VS\VC\INCLUDE\DEQUE
D:\USERS\HP\DESKTOP\OPENCV\BUILD\INCLUDE\OPENCV2\CONTRIB\RETINA.HPP
D:\VS\VC\INCLUDE\VALARRAY
D:\USERS\HP\DESKTOP\OPENCV\BUILD\INCLUDE\OPENCV2\CONTRIB\OPENFABMAP.HPP
D:\VS\VC\INCLUDE\LIST
D:\VS\VC\INCLUDE\SET
